mc20_13TeV.523074.MGPy8EG_A14NNPDF23LO_ttHH_fullhad.deriv.DAOD_PHYSLITE.e8531_a907_r14859_p5855
mc20_13TeV.523074.MGPy8EG_A14NNPDF23LO_ttHH_fullhad.deriv.DAOD_PHYSLITE.e8531_a907_r14860_p5855
mc20_13TeV.523074.MGPy8EG_A14NNPDF23LO_ttHH_fullhad.deriv.DAOD_PHYSLITE.e8531_a907_r14861_p5855
